[
    {
        "name": "Venice",
        "temp": "299.18",
        "sunrise": "1618484712",
        "sunset": "1618530834",
        "lon":-82.4543,
        "lat":27.0998
    },
    {
        "name": "Paris",
        "temp": "283.18",
        "sunrise": "1618462762",
        "sunset": "1618512085",
        "lon":2.3488,
        "lat":48.8534
    },
    {
        "name": "Brussels",
        "temp": "281.59",
        "sunrise": "1618462064",
        "sunset": "1618511823",
        "lon":4.3488,
        "lat":50.8504
    },
    {
        "name": "Rome",
        "temp": "291.17",
        "sunrise": "1618484934",
        "sunset": "1618531913",
        "lon":-85.1647,
        "lat":34.257
    },
    {
        "name": "Istanbul",
        "temp": "282.68",
        "sunrise": "1618457083",
        "sunset": "1618504981",
        "lon":28.9833,
        "lat":41.0351
    }
]